{
  "project_info": {
    "project_number": "360621286804",
    "firebase_url": "https://reactnative-ynov.firebaseio.com",
    "project_id": "reactnative-ynov",
    "storage_bucket": "reactnative-ynov.appspot.com"
  },
  "client": [
    {
      "client_info": {
        "mobilesdk_app_id": "1:360621286804:android:f6148119c7174ce0",
        "android_client_info": {
          "package_name": "com.reactnative_ynov"
        }
      },
      "oauth_client": [
        {
          "client_id": "360621286804-mksbs3m1nhohspnrdqhu1usaftmhjo7b.apps.googleusercontent.com",
          "client_type": 3
        }
      ],
      "api_key": [
        {
          "current_key": "AIzaSyB9PG52DLmotUC33syeiJmdkKeo46doPyU"
        }
      ],
      "services": {
        "analytics_service": {
          "status": 1
        },
        "appinvite_service": {
          "status": 1,
          "other_platform_oauth_client": []
        },
        "ads_service": {
          "status": 2
        }
      }
    }
  ],
  "configuration_version": "1"
}